Reddit Posts and Movie Gross Box Office
…
#num of movies: 34
gbo_post_df_na_zero_cumsum %>%
  filter(release_date >= "2015-05-01"  & log_gbo_daily_sum > 0) %>% distinct(movie_name)

## # A tibble: 34 x 1
##    movie_name                
##    <chr>                     
##  1 5 Flights Up              
##  2 Aloha                     
##  3 Animals                   
##  4 Avengers: Age of Ultron   
##  5 Chocolate City            
##  6 Dark Star: HR Gigers Welt 
##  7 Entourage                 
##  8 Far from the Madding Crowd
##  9 Gerontophilia             
## 10 Heaven Knows What         
## # … with 24 more rows
…
